{
  "whatItDoesTitle": "What it does",
  "whatItIsTitle": "What it is",
  "whatItIsDescription": [
    "Herself a living legend in the history of boxing and kickboxing, Michele Aboro has built the ABORO METHOD with the vision to share her knowledge of both disciplines and to make boxing and kickboxing more accessible to adults, teens and juniors.",
    "The culmination of Michele’s thirty years of experience in the ring, her Combat Performance training and practice in boxing and kickboxing, have all led to the creation of the ABORO METHOD. This is designed to assess the levels of coaches, recreational and professional fighters, enabling them to progress fast, and by the RANKING SYSTEM objectively: have a clear structural pathway to their goals.",
    "The ABORO METHOD is an integrated holistic training system that maximizes the teaching and learning progress in boxing by using safe progression and the objective assessment of each student’s level. The ABORO METHOD is built on professionalism, dedication and compassion: the ABORO THREE CORE, which represent the attitude and the values at the heart of the ABORO ACADEMY."
  ],
  "aboroMethodSubtitle": "What it does",
  "aboroMethodDescription": [
    "Michele created the ABORO METHOD and ABORO RANKING SYSTEM to make boxing and kickboxing available to students of all levels and provide a training program for (professional coaches).",
    "As Co-Founder, Masca, through understanding the healing power of boxing and kickboxing, also created classes for juniors and children to help them release potential anger and frustration in a controlled and a safe environment, aiming to empower their self-esteem and discipline, while building respect towards others. Her vision to create a graceful space without barriers and discrimination reflects her and Michele’s idea that anyone can attain the unattainable. For some, that could be throwing a powerful, accurate jab; for others being confident to defend themselves, or even competing as an amateur boxer. The Aboro Team prides itself on helping people exceed expectation and smash their personal goals. This environment encourages people to come and train with us, not just for the purpose of obtaining a skill set, but also being part of a welcoming community, improving their confidence, losing weight or sustaining a healthy workout regimen: ultimately leading to a healthier lifestyle."
  ],
  "rankingTitle": "Ranking System",
  "rankingDescription": [
    "With our Aboro Ranking, we tailored our Aboro Method into a progressive education which consists of 6 levels for juniors and 10 levels for adults, using the different colours to grade our students at Aboro.",
    "Therefore, it gives us the ability to easily see what level of expertise they hold, and determine their interest towards learning the art of Boxing & Kickboxing and to train them up alongside our Aboro coaches."
  ]
}
