{
  "empowerTitle": "演讲·赋能",
  "empowerSubtitle": "故事的力量",
  "empowerDescrpition": [
    "从世界拳击冠军，到两次癌症幸存者。",
    "“我在单亲家庭长大，家里有7个孩子和我的妈妈。她是爱尔兰裔苏格兰人，所以你该能想象她非常的固执任性。她抚养我们长大并一直告诉我们，不管你想成为什么样的人，你都可以做到。”",
    "她的故事是关于打破壁垒冲出障碍的故事，从在女人被禁止打拳的时候开始学习拳击，到成为不败的世界冠军；从职业运动员到拳击馆的创始人到慈善家；从乳腺癌患者到一名母亲再到一位导师。",
    "“我们的目的是帮助人们实现不可能实现的目标。”"
  ],
  "cta": "立即联系Michele"
}
