{
  "title": "媒体",
  "mainVideo": {
    "url": "https://aboro-website.oss-cn-beijing.aliyuncs.com/media/aboro_academy.mp4",
    "thumbnail": "images/thumbnail_aboro_academy.png"
  },
  "videos": [
    {
      "url": "https://aboro-website.oss-cn-beijing.aliyuncs.com/media/jetli.mp4",
      "thumbnail": "images/thumbnail_jetli.png"
    },
    {
      "url": "https://aboro-website.oss-cn-beijing.aliyuncs.com/media/unreasonable_woman.mp4",
      "thumbnail": "images/thumbnail_unreasonable_woman.png"
    },
    {
      "url": "https://aboro-website.oss-cn-beijing.aliyuncs.com/media/lululemon.mp4",
      "thumbnail": "images/thumbnail_lululemon.png"
    }
  ]
}
