{
  "title": "Aboro Academy",
  "description": "Aboro Academy",
  "author": "@jcppman",
  "nav": [
    {
      "name": "menu_about",
      "link": "/about",
      "subitems": [
        {
          "name": "menu_aboro_academy",
          "link": "/about"
        },
        {
          "name": "menu_aboro_foundation",
          "link": "/about#aboro_foundation"
        },
        {
          "name": "menu_founders",
          "link": "/about#founders"
        },
        {
          "name": "menu_team_of_coaches",
          "link": "/about#team_of_coaches"
        }
      ]
    },
    {
      "name": "menu_aboro_method",
      "link": "/aboro_method"
    },
    {
      "name": "menu_train_with_us",
      "link": "/train_with_us",
      "subitems": [
        {
          "name": "menu_pro_boxing",
          "link": "/train_with_us#pro_boxing"
        },
        {
          "name": "menu_kickboxing",
          "link": "/train_with_us#kickboxing"
        },
        {
          "name": "menu_combat_performance",
          "link": "/train_with_us#combat_performance"
        },
        {
          "name": "menu_krav_maga_global",
          "link": "/train_with_us#krav_maga_global"
        },
        {
          "name": "menu_yoga",
          "link": "/train_with_us#yoga"
        },
        {
          "name": "menu_balanced_training",
          "link": "/train_with_us#balanced_training"
        },
        {
          "name": "menu_junior_boxing_and_kicking",
          "link": "/train_with_us#junior_boxing_and_kicking"
        },
        {
          "name": "menu_team_building",
          "link": "/train_with_us#team_building"
        },
        {
          "name": "menu_become_an_aboro_coach",
          "link": "/train_with_us#become_an_aboro_coach"
        }
      ]
    },
    {
      "name": "menu_training_camps",
      "link": "/training_camps",
      "subitems": [
        {
          "name": "menu_ako",
          "link": "/training_camps#ako"
        },
        {
          "name": "menu_accc",
          "link": "/training_camps#accc"
        },
        {
          "name": "menu_junior_camp",
          "link": "/training_camps#junior_camp"
        }
      ]
    },
    {
      "name": "menu_empower",
      "link": "/empower",
      "subitems": []
    },
    {
      "name": "menu_class_schedule",
      "link": "/class_schedule",
      "subitems": []
    },
    {
      "name": "menu_media",
      "link": "/media",
      "subitems": []
    },
    {
      "name": "menu_contact_us",
      "link": "/contact_us",
      "subitems": []
    }
  ],
  "socialLinks": {
    "weibo": "https://weibo.com/weibo",
    "facebook": "https://facebook.com/facebook",
    "instagram": "https://instagram.com/instagram",
    "linkedin": "https://linkedin.com/linkedin"
  },
  "contact": {
    "title": "ABORO ACADEMY",
    "address_en_line1": "667 Chang Hua Road, 2FL S6S8",
    "address_en_line2": " (near AnYuan Road) Jing'an District,Shanghai PRC",
    "address_zh": "上海市静安昌化路667号 (近安远路) 2楼 S6S8室",
    "number": "+86 216 222 0266",
    "email": "info@aboroacademy.com",
    "wechat": "ABORO667"
  }
}
