{
  "proBoxingTitle": "Pro Boxing",
  "proBoxing": [
    "Pro Boxing is a personalised training for national and international pro boxers to improve strategic and fighting skills for professional competitions.",
    "Built around Michele Aboro’s own experience as World Champion athlete and coach, Pro Boxing training has prepared the Aboro Pro Boxing Team for competitions. The team has competed successfully in China and internationally."
  ],
  "boxingTitle": "Boxing",
  "boxing": [
    "Formulated by Michele Aboro to suit absolute beginners and seasoned students, these classes are perfect for all ages, who want to learn boxing technique while experiencing the authentic boxing vibes.",
    "All our beginners' classes have no contact so you have time and space to learn combat sport in a controlled and safe environment.",
    "Classes use the ABORO METHOD and ABORO RANKING SYSTEM to evaluate students’ level and their progressions with in-house exams.",
    "But, if you only want to use Boxing to improve your health, we recommend our boxing High-Intensity Interval Training drills to help you burn thousands of calories and build total-body strength in no time.",
    "Join our boxing class to find out how to build body and mind-endurance, improve agility and boost self-confidence. Boxing is not just punching!",
    "Find the best class for you."
  ],
  "kickboxingTitle": "Kickboxing",
  "kickboxing": [
    "The training teaches the technique of Dutch kickboxing, which is characterised by an extremely dynamic fighting style.",
    "Using the ABORO METHOD training routine and the ABORO RANKING SYSTEM, students improve their levels progressively.",
    "Highly rewarding and engaging, classes are available for adults of all levels.  Training is done through pad-work drills and features physical conditioning.",
    "It’s a unique approach to fighting that combines angular movement, timing, and combinations utilizing the striking tools of Boxing, Muay Thai, and Karate to create an incredibly efficient method of training.",
    "An excellent way to spice up anyone’s cardio routine."
  ],
  "cpTitle": "Combat Performance",
  "cp": [
    "Combat Performance is a 60 minutes circuit class complementing boxing and kickboxing training. Suitable to students of all levels, Combat Performance improves strength, agility and cardio endurance in preparation for the explosive movements of boxing and kickboxing.",
    "Classes are also open to anyone who wants to improve physical conditioning.",
    "For more information."
  ],
  "kmgTitle": "KMG ( KRAV MAGA GLOBAL )",
  "kmg": [
    "KMG’s Krav Maga is an integrated system of self-defence, combat and fighting, VIP and third-party protection. It is the leading system of its kind in the world, known for its practical and realistic techniques and tactics for avoiding, preventing, deterring, or otherwise handling all types of violent confrontations”.",
    "KMG training is designed to gradually develop safety, physical and mental skills to quickly respond to multiple adverse situations. KMG is perfect for both men and women as it teaches how to use strategy, observation and technique before turning to physical strength. Classes available for children, too. Learn how to protect yourself."
  ],
  "yogaTitle": "Yoga",
  "yoga": [
    "Yoga is best way to stretch and strengthen all muscles of the body. Whether you are flexible or stiff, our classes of Yin Yoga and Power Yoga will help you to advance in the silent path of inner body-mind self-improvement. Power Yoga, designed around Ashtanga Vinyasa, is just a bit more active than Yin Yoga, where practitioners keep asanas for long time.",
    "Want to understand the difference a bit better?",
    "Join any Yoga class."
  ],
  "balanceTitle": "The importance of a balanced training programme",
  "balanceSkillsTitle": "Skills",
  "balanceSkills": "The primary focus of this programme is improving your technical abilities and your foundation in Boxing, KickBoxing and Krav Maga Global on different levels",
  "balanceCpTitle": "Combat Performance",
  "balanceCp": "The primary focus of this programme is producing a higher level of all-round conditioning",
  "balanceLifestyleTitle": "Healthy Lifestyle",
  "balanceLifestyle": "The primary focus of this yoga programme is flexibility and balance.",
  "asterisk": "part of the ABORO METHOD",
  "juniorTitle": ["Junior Boxing &", "Kickboxing"],
  "junior": [
    "ABORO JUNIOR BOXING and ABORO JUNIOR KICKBOXING programmes have been developed by Michele Aboro to teach children the art of boxing and kickboxing in a safe environment.",
    "Each programme is organised in progressive classes with specific short-term goals. During and at the end of each cycle, students’ physical and mental skills are assessed before increasing training challenges. At the end of each cycle, students receive the ABORO METHOD certification and a patch.",
    "Classes are available for juniors and teens between the ages of 7 and 15. Boxing and kickboxing programmes are not interchangeable.",
    "Check the schedule."
  ],
  "tbTitle": "Team Building",
  "tb": [
    "The Aboro Academy creates tailored Team Building and Leadership programmes to reinforce the team cohesion by creating constant interactions among all members of the group, stimulating mutual trust and boosting energy and confidence.",
    "Suitable to everybody, the Team Building programme uses boxing and kickboxing workouts to improve communication among participants and develop skills such as awareness, enabling them perceive themselves differently and realign with each other.",
    "Particularly suitable for executives and managers, the Leadership programme improves management skillsets and enables mindful focus and productivity while keeping a motivated and goal-oriented team.",
    "Team Building and Leadership programmes promote an active and healthier lifestyle by encouraging physical activity, self-motivation and longterm vision.",
    "Check out our offers!"
  ],
  "coachTitle": "Become an aboro coach",
  "coach": [
    "In addition, you can learn how to teach Boxing with Aboro Boxing method.",
    "The role of a coach is not only to give instructions on how to perform a workout, but most importantly, to also motivate the students to do their best and inspire them to challenge their limits.  There is no shame in making mistakes as it is part of the learning process. With these principles in mind, the ABORO COACHES CERTIFICATION COURSE covers different aspects of the relationship between coach and student."
  ]
}
